<svg xmlns="http://www.w3.org/2000/svg" xmlns:xlink="http://www.w3.org/1999/xlink" viewBox="-992 1355 21.193 21.388">
  <defs>
    <style>
      .cls-1, .cls-2 {
        fill: none;
      }

      .cls-1 {
        clip-rule: evenodd;
      }

      .cls-3 {
        clip-path: url(#clip-path);
      }

      .cls-4 {
        clip-path: url(#clip-path-2);
      }

      .cls-5 {
        fill: #94a4a6;
      }

      .cls-6 {
        clip-path: url(#clip-path-3);
      }

      .cls-7 {
        clip-path: url(#clip-path-5);
      }
    </style>
    <clipPath id="clip-path">
      <path id="Path_837" data-name="Path 837" class="cls-1" d="M21.6-13.6a7.83,7.83,0,0,0-7.822-7.822A7.817,7.817,0,0,0,7.09-17.642,7.147,7.147,0,0,0,.4-10.521,7.151,7.151,0,0,0,6.631-3.442V-.953a.917.917,0,0,0,.6.86.908.908,0,0,0,.318.056.915.915,0,0,0,.7-.32l4.517-5.281a.857.857,0,0,0,.1-.14V-3a.918.918,0,0,0,.6.86.921.921,0,0,0,.317.056.918.918,0,0,0,.7-.321L19.48-8.255c.018-.021.03-.043.046-.065A7.784,7.784,0,0,0,21.6-13.6m-7.822-5.988A6,6,0,0,1,19.763-13.6a6,6,0,0,1-5.988,5.988A6,6,0,0,1,7.787-13.6a6,6,0,0,1,5.988-5.988M2.237-10.521a5.315,5.315,0,0,1,4-5.141A7.784,7.784,0,0,0,5.954-13.6a7.829,7.829,0,0,0,4.888,7.245A5.265,5.265,0,0,1,7.548-5.21a5.317,5.317,0,0,1-5.311-5.311" transform="translate(0 22)"/>
    </clipPath>
    <clipPath id="clip-path-2">
      <path id="Path_836" data-name="Path 836" class="cls-2" d="M-33,768H1300V-317H-33Z" transform="translate(0 22)"/>
    </clipPath>
    <clipPath id="clip-path-3">
      <path id="Path_840" data-name="Path 840" class="cls-1" d="M12.269-14h3.014a.917.917,0,0,0,.917-.917.917.917,0,0,0-.917-.917H12.269a.917.917,0,0,0-.917.917.917.917,0,0,0,.917.917" transform="translate(0 22)"/>
    </clipPath>
    <clipPath id="clip-path-5">
      <path id="Path_843" data-name="Path 843" class="cls-1" d="M12.269-10.868h3.014a.917.917,0,0,0,.917-.917.917.917,0,0,0-.917-.917H12.269a.917.917,0,0,0-.917.917.917.917,0,0,0,.917.917" transform="translate(0 22)"/>
    </clipPath>
  </defs>
  <g id="Q_A_Icon" data-name="Q&amp;A Icon" transform="translate(-992.403 1354.426)">
    <g id="Group_1040" data-name="Group 1040" class="cls-3">
      <g id="Group_1039" data-name="Group 1039" class="cls-4">
        <path id="Path_835" data-name="Path 835" class="cls-5" d="M-4.6-26.426H26.6V4.963H-4.6Z" transform="translate(0 22)"/>
      </g>
    </g>
    <g id="Group_1042" data-name="Group 1042" class="cls-6">
      <g id="Group_1041" data-name="Group 1041" class="cls-4">
        <path id="Path_838" data-name="Path 838" class="cls-5" d="M6.352-20.833H21.2V-9H6.352Z" transform="translate(0 22)"/>
      </g>
    </g>
    <g id="Group_1044" data-name="Group 1044" class="cls-7">
      <g id="Group_1043" data-name="Group 1043" class="cls-4">
        <path id="Path_841" data-name="Path 841" class="cls-5" d="M6.352-17.7H21.2V-5.868H6.352Z" transform="translate(0 22)"/>
      </g>
    </g>
  </g>
</svg>
