<?xml version="1.0" encoding="utf-8"?>
<!-- Generator: Adobe Illustrator 16.0.0, SVG Export Plug-In . SVG Version: 6.00 Build 0)  -->
<!DOCTYPE svg PUBLIC "-//W3C//DTD SVG 1.1//EN" "http://www.w3.org/Graphics/SVG/1.1/DTD/svg11.dtd">
<svg version="1.1" id="Layer_1" xmlns="http://www.w3.org/2000/svg" xmlns:xlink="http://www.w3.org/1999/xlink" x="0px" y="0px"
	 width="70px" height="70px" viewBox="0 0 70 70" enable-background="new 0 0 70 70" xml:space="preserve">
<g>
	
		<rect x="12.669" y="6.939" fill="#FFFFFF" stroke="#333333" stroke-width="2" stroke-linejoin="round" stroke-miterlimit="10" width="44.662" height="56.121"/>
	
		<rect x="17.981" y="11.695" fill="#8FD5BD" stroke="#333333" stroke-width="2" stroke-linejoin="round" stroke-miterlimit="10" width="34.038" height="46.607"/>
	<g>
		<g>
			<path fill="#9CB6D3" stroke="#333333" stroke-width="2" stroke-linejoin="round" stroke-miterlimit="10" d="M48.378,56.096
				v-9.236c0-4.715-2.444-8.85-6.129-11.234l-7.171,7.172L48.378,56.096z"/>
			<path fill="#FFCE00" stroke="#333333" stroke-width="2" stroke-linejoin="round" stroke-miterlimit="10" d="M42.249,35.625
				c-2.089-1.352-4.574-2.143-7.248-2.143c-2.634,0-5.081,0.771-7.151,2.084l7.229,7.23L42.249,35.625z"/>
			<path fill="#9CB6D3" stroke="#333333" stroke-width="2" stroke-linejoin="round" stroke-miterlimit="10" d="M35.078,42.797
				l-7.229-7.23c-3.738,2.373-6.227,6.537-6.227,11.293V57.92h26.755v-1.824L35.078,42.797z"/>
		</g>
		
			<circle fill="#F9E6D9" stroke="#333333" stroke-width="2" stroke-linecap="round" stroke-linejoin="round" stroke-miterlimit="10" cx="35.012" cy="25.93" r="11.405"/>
		<path fill="none" stroke="#333333" stroke-width="2" stroke-linecap="round" stroke-linejoin="round" stroke-miterlimit="10" d="
			M37.901,28.959c0,1.602-1.299,2.9-2.9,2.9s-2.9-1.299-2.9-2.9"/>
	</g>
</g>
</svg>
