<?xml version="1.0" encoding="utf-8"?>
<!-- Generator: Adobe Illustrator 16.0.0, SVG Export Plug-In . SVG Version: 6.00 Build 0)  -->
<!DOCTYPE svg PUBLIC "-//W3C//DTD SVG 1.1//EN" "http://www.w3.org/Graphics/SVG/1.1/DTD/svg11.dtd">
<svg version="1.1" id="Layer_1" xmlns="http://www.w3.org/2000/svg" xmlns:xlink="http://www.w3.org/1999/xlink" x="0px" y="0px"
	 width="70px" height="70px" viewBox="0 0 70 70" enable-background="new 0 0 70 70" xml:space="preserve">
<g>
	<path fill="#007EE5" d="M27.668,18.434l-10.479,6.842l7.246,5.803l10.564-6.523L27.668,18.434z M17.188,36.881l10.479,6.842
		L35,37.602l-10.565-6.523L17.188,36.881z M35,37.602l7.333,6.121l10.479-6.842l-7.246-5.803L35,37.602L35,37.602z M52.812,25.275
		l-10.479-6.842L35,24.555l10.566,6.523L52.812,25.275z"/>
	<path fill="#007EE5" d="M35.022,38.92l-7.354,6.102l-3.146-2.055v2.303l10.501,6.297l10.499-6.297v-2.303l-3.146,2.055
		L35.022,38.92L35.022,38.92z"/>
</g>
</svg>
