<?xml version="1.0" encoding="utf-8"?>
<!-- Generator: Adobe Illustrator 16.0.0, SVG Export Plug-In . SVG Version: 6.00 Build 0)  -->
<!DOCTYPE svg PUBLIC "-//W3C//DTD SVG 1.1//EN" "http://www.w3.org/Graphics/SVG/1.1/DTD/svg11.dtd">
<svg version="1.1" id="Layer_1" xmlns="http://www.w3.org/2000/svg" xmlns:xlink="http://www.w3.org/1999/xlink" x="0px" y="0px"
	 width="70px" height="70px" viewBox="0 0 70 70" enable-background="new 0 0 70 70" xml:space="preserve">
<g>
	<path fill="#D87900" stroke="#333333" stroke-width="2" stroke-linejoin="round" stroke-miterlimit="10" d="M27.773,14.751v14.454
		h14.453V14.751H27.773z M38.457,25.435h-6.914v-6.913h6.914V25.435z"/>
	<g>
		<path fill="#6ECDB2" stroke="#333333" stroke-width="2" stroke-linejoin="round" stroke-miterlimit="10" d="M17.09,21.455v7.596
			c5.053,3.781,11.324,6.021,18.119,6.021c6.611,0,12.723-2.126,17.702-5.723v-7.894H17.09z"/>
		<path fill="#00B288" stroke="#333333" stroke-width="2" stroke-linejoin="round" stroke-miterlimit="10" d="M17.09,29.05v20.685
			h35.821V29.349c-4.979,3.596-11.091,5.723-17.702,5.723C28.414,35.071,22.143,32.831,17.09,29.05z"/>
	</g>
	<path fill="#333333" stroke="#333333" stroke-width="2" stroke-linejoin="round" stroke-miterlimit="10" d="M38.252,38.038
		c0,1.754-1.424,3.178-3.18,3.178c-1.755,0-3.178-1.424-3.178-3.178v-2.967h6.357V38.038z"/>
	<path fill="#FFFFFF" d="M36.847,38.181c0,1.021-0.826,1.848-1.847,1.848c-1.02,0-1.846-0.826-1.846-1.848
		c0-1.018,0.826-1.844,1.846-1.844C36.021,36.337,36.847,37.163,36.847,38.181z"/>
</g>
</svg>
