<?xml version="1.0" encoding="utf-8"?>
<!-- Generator: Adobe Illustrator 16.0.0, SVG Export Plug-In . SVG Version: 6.00 Build 0)  -->
<!DOCTYPE svg PUBLIC "-//W3C//DTD SVG 1.1//EN" "http://www.w3.org/Graphics/SVG/1.1/DTD/svg11.dtd">
<svg version="1.1" id="Layer_1" xmlns="http://www.w3.org/2000/svg" xmlns:xlink="http://www.w3.org/1999/xlink" x="0px" y="0px"
	 width="70px" height="70px" viewBox="0 0 70 70" enable-background="new 0 0 70 70" xml:space="preserve">
<path fill="#474747" stroke="#383838" stroke-width="2" stroke-miterlimit="10" d="M29.821,29.098c0.607,0,1.214,0,1.819,0
	c1.096,0.252,2.173,0.55,3.077,1.265c0.194,0.154,0.373,0.154,0.567,0c0.904-0.715,1.979-1.016,3.075-1.265c0.606,0,1.213,0,1.819,0
	c2.435,0.378,4.538,1.494,6.51,2.908c1.118,0.803,2.28,1.537,3.55,2.087c0.908,0.393,1.84,0.669,2.848,0.561
	c0.99-0.106,1.572-0.901,1.377-1.879c-0.335-1.684-1.898-2.687-3.549-2.284c-0.115,0.029-0.26,0.157-0.352-0.043
	c1.475-1.454,3.41-1.368,4.689,0.208c0.566,0.698,0.957,1.485,1.162,2.362c0,0.467,0,0.934,0,1.398
	c-0.675,2.288-2.293,3.735-4.32,4.788c-2.881,1.496-5.953,1.954-9.152,1.514c-2.943-0.405-5.576-1.472-7.552-3.81
	c-0.334-0.396-0.552-0.274-0.823,0.056c-0.888,1.08-1.983,1.908-3.245,2.489c-3.896,1.794-7.886,1.907-11.883,0.426
	c-2.679-0.992-4.948-2.521-5.851-5.463c0-0.465,0-0.932,0-1.398c0.266-1.09,0.767-2.055,1.594-2.817
	c1.236-1.144,3.299-0.983,4.275,0.358c-0.154-0.027-0.263-0.039-0.37-0.065c-1.653-0.405-3.214,0.598-3.549,2.281
	c-0.194,0.978,0.386,1.773,1.377,1.877c0.831,0.089,1.621-0.079,2.394-0.376c1.449-0.556,2.75-1.372,4.003-2.271
	C25.284,30.592,27.388,29.479,29.821,29.098z"/>
</svg>
