<svg xmlns="http://www.w3.org/2000/svg" xmlns:xlink="http://www.w3.org/1999/xlink" viewBox="468 2861 46.408 50">
  <defs>
    <style>
      .cls-1 {
        fill: none;
      }

      .cls-2 {
        clip-path: url(#clip-path);
      }

      .cls-3 {
        fill: #fff;
        fill-rule: evenodd;
      }
    </style>
    <clipPath id="clip-path">
      <path id="Path_2606" data-name="Path 2606" class="cls-1" d="M0-115.2H46.408v50H0Z" transform="translate(0 115.201)"/>
    </clipPath>
  </defs>
  <g id="Group_2699" data-name="Group 2699" transform="translate(469 2918)">
    <g id="Group_2698" data-name="Group 2698" class="cls-2" transform="translate(-1 -57)">
      <g id="Group_2696" data-name="Group 2696" transform="translate(24.686 21.261)">
        <path id="Path_2604" data-name="Path 2604" class="cls-3" d="M-.382-.644c.107.011.175-.015.163-.122-.107-.012-.175.015-.163.122m2.653-.2c.115.293-.146.414-.326.53A5.364,5.364,0,0,0-.586-.481C-.623-.553-.7-.585-.668-.726c.124-.233.391-.114.653-.163.74-.139,1.74-.5,2.285.041" transform="translate(0.676 1.138)"/>
      </g>
      <g id="Group_2697" data-name="Group 2697" transform="translate(0 0)">
        <path id="Path_2605" data-name="Path 2605" class="cls-3" d="M-40.078-58.974h.2v-.2c-.145-.01-.214.059-.2.2m-1.306-.122a.372.372,0,0,0-.327-.286c-.087.3.164.477.327.286m1.347-1.755h.326c.053-.272-.369-.255-.326,0m1.346-.571c.24-.036.463.117.653,0-.026-.262-.6-.188-.653,0m-14.816-8.694a2.008,2.008,0,0,0,1.1-.286c-.52.029-.919-.073-1.1.286M-42.242-93.1a.48.48,0,0,0,.327,0c-.024-.227-.288-.164-.327,0m2.082-.572c.16.12.315-.046.49-.041-.1-.274-.338-.063-.49.041M-26.446-104.2h.653v.041c.8.006,1.273.332,1.388,1.021v.326h-.041c-.1.726-.681.979-1.347,1.143.021.388.146.506.082.775s-.344.27-.408.49c-.073.25.12.462.041.816a2.3,2.3,0,0,0-.98.572c-.192.156-.317.413-.49.49-.145.064-.308.007-.448.081-.307.163-.438.534-.776.694a8.459,8.459,0,0,1-.9.245c-.043.895-.884,1.193-1.51,1.674a9.893,9.893,0,0,1-1.428,1.061c-.461.23-1.064.319-1.592.531-1.066.428-2.141.911-3.306,1.347-.4.15-.832.188-1.224.326-.556.2-1.01.615-1.51.735a11.156,11.156,0,0,0-2.612.531c-.064.178.078.527,0,.734-.127.339-.936.462-1.306.653-.457.236-.845.534-1.184.735a8.994,8.994,0,0,0-2.2,1.632c-.412.516-.455.878-1.021,1.347a4.82,4.82,0,0,0-1.061.367,3.389,3.389,0,0,0-.939.449c.467.213,1.009-.3,1.347.041-.077.453-.422.639-.572,1.02-.013.2.208.173.2.367-.214.276-.328.652-.612.857-.055.563-.6,1-.775,1.469-.111.291-.186.711,0,.9.208.211.888.048,1.388,0,.539-.052,1.009-.027,1.51-.122.206-.039.437-.183.653-.245.385-.11.807-.1,1.1-.2.217-.074.523-.329.776-.327s.541.224.9.286c.825.142,1.868.2,2.122-.326a13.317,13.317,0,0,1,2-.041c.664.074,1.492.177,1.714.694-.26.355-.672.225-1.02.245a8.11,8.11,0,0,0-1.878.327,11.04,11.04,0,0,0-1.673.53c-.19.1-.309.25-.49.326-.217.092-.474.042-.694.123s-.445.316-.694.449a11.314,11.314,0,0,0-1.674,1.1c-.306.24-.4.478-.694.735-.516.446-1.145.727-1.674,1.1-.271.192-.379.37-.694.572a3.345,3.345,0,0,0-.612.49c.049.237.28.291.245.612.469.482.959.889,1.469,1.347a10.219,10.219,0,0,0,1.551,1.224,3.326,3.326,0,0,0,.734.326c.276.063.546-.016.694.123.186.174.109.617.286.775.193.173.649.127.9.2.518.161.96.622,1.388.776.69-.1.911.451,1.51.571.123.025.376-.025.531,0,.289.046.816.236,1.143.326s1.645.572,1.714.858a.714.714,0,0,1-.49.694,4,4,0,0,1-.572-.041c-.773-.007-2.129.25-2.938.163-.164-.018-.3-.112-.449-.122a8.842,8.842,0,0,0-1.266.041c-.332.027-.771.023-.98.245.627-.159,1.41.223,1.959.245.125.005.223-.078.408-.082.25,0,.741.128,1.184.163A21.454,21.454,0,0,1-39.3-66.4c.4.073.733.2,1.184.286s.988.172,1.061.408c.185.6-.522.824-.571,1.306.746.243,1.611.46,2.53.735.517.154,1.285.324,1.347.694.087.519-.479.66-.49,1.184a4.626,4.626,0,0,0,1.347.245,9.057,9.057,0,0,1,1.8.694c.341.142.786.161.776.612-.165.257-.293.55-.612.653a5.291,5.291,0,0,0-1.755-.286c-.174-.029-.318-.167-.489-.2-1.811-.389-3.84-.5-5.756-.735.183.27.62.159.98.245,1.174.28,2.694.506,3.877.9.64.212,1.312.226,1.918.368.539.126,2.168.652,1.347,1.306-.938-.276-2.225-.295-3.306-.49a14.952,14.952,0,0,0-1.592-.327c-1.255-.066-2.528-.11-3.837-.163,2.477.591,5.253,1.109,7.836,1.714a37.615,37.615,0,0,1,5.51,1.632c.639.261,2.061.839,1.061,1.429h-.245c-.514-.383-1.414-.381-1.591-1.1a75.07,75.07,0,0,0-13.388-3.061,48.242,48.242,0,0,0-4.939-.572c-.7-.029-1.489.113-1.143-.612a69.521,69.521,0,0,1,11.714.408c-.187-.217-.543-.225-.816-.286-1.518-.34-3.018-.565-4.694-.816-.622-.093-1.281-.294-1.878-.326-.176-.01-.354.05-.531.04-.415-.021-.877-.168-1.347-.2-1.5-.115-3.076-.289-4.49-.286-.584,0-1.15.141-.98-.572a54.981,54.981,0,0,1,8.04.041,4.636,4.636,0,0,0,1.918.04c-.2-.464-.672-.3-1.142-.326a5.531,5.531,0,0,1-.857-.122c-.224-.05-.395-.206-.612-.245s-.447.04-.653,0-.372-.2-.572-.245a26.08,26.08,0,0,0-2.816-.286c-.275-.03-.54-.158-.817-.2-.865-.144-1.8-.13-2.694-.2a15.982,15.982,0,0,1-2.694-.245c-.095-.313,0-.816-.163-1.061-.213-.113-.7.046-.857-.122-.105-.249.053-.76-.163-.9-.4-.126-1.064.175-1.429-.04-.076-.339-.031-.9-.082-1.143-.491-.042-.98.26-1.388.041-.153-.2-.024-.623,0-.9a20.3,20.3,0,0,1,2.612-.49,26.048,26.048,0,0,0,4.082-.694,6.749,6.749,0,0,0-2.286.164c-.8.1-1.632.123-2.368.286-.25.055-.447.214-.694.245-.5.063-.982.052-1.47.163-.216.049-.347.207-.531.2-.158,0-.324-.18-.53-.2-.327-.038-.647.15-.9-.04a12.564,12.564,0,0,1-.408-1.592c-.21-.113-.454.052-.735,0-.2-.252-.158-.74-.367-.98a.911.911,0,0,0-.98.694c-.064.339.119.59.2.98.03.141,0,.288.04.408.069.225.276.416.286.612a5.944,5.944,0,0,1-.286,1.061c-.173.633-.28,1.942-.9,1.8s-.089-1.428-.163-1.837a2.11,2.11,0,0,0-.49-.735c-.153-.2-.522-.433-.531-.734-.007-.243.283-.629.408-.9a3.755,3.755,0,0,0,.408-.939c-.688.175-.807-.439-1.184-.449-.254-.007-.855.472-1.143.694-.8.614-1.365,1.021-2.123,1.592-.3.224-.8.779-1.1.776-.365,0-.47-.44-.694-.653.6-.747,1.7-1.211,2.163-1.959a18.15,18.15,0,0,0-4.327,3.184,1.415,1.415,0,0,1-.367-.326v-.163c.2-.221.419-.662.653-.98a23.687,23.687,0,0,1,2.2-2.53c.17-.171.339-.368.53-.53.159-.135.5-.277.368-.572-.7.066-.866,1.011-1.674,1.1a1.335,1.335,0,0,1-.245-.49c1.234-1.223,2.523-2.525,3.878-3.673.428-.363.972-.714,1.142-1.266a11.145,11.145,0,0,0-1.836.816,7.583,7.583,0,0,0-2.082,1.347c-.4.016-.784.553-1.021.041a5.272,5.272,0,0,1,1.225-.735c.407-.219.8-.526,1.224-.735a9.056,9.056,0,0,0,2.694-1.388c-1.067-.239-2.222.6-2.816-.082a4.57,4.57,0,0,1,2.122-.612c.779-.151,1.58-.229,2.286-.408.159-.137-.158-.281-.041-.368,1-.708,2.3-1.289,3.428-2,.582-.368,1.179-.546,1.388-1.224.239-.184.634-.187.816-.449.154-.221.089-.549.2-.816.133-.308.674-.549.857-.857.1-.175.067-.415.164-.53.165-.2.494-.141.694-.327-.52-1.144.7-1.783,1.143-2.49.7-.317,1.33-.864,2.081-1.184a10.56,10.56,0,0,0,2.2-.858c-.31-1.405,1.38-1.145,2.122-1.632.226-.339.14-.79.449-1.02s.842-.133,1.225-.368c.211-.18.245-.517.449-.734a5.425,5.425,0,0,1,1.918-.816c.726-.214,1.493-.378,2.122-.612.231-.086.372-.249.531-.286a17,17,0,0,0,1.918-.408,4.17,4.17,0,0,0,1.143-.53c-.709.013-1.2.241-1.878.286-1.11.421-2.373.757-3.592,1.143a2.9,2.9,0,0,1-1.143.245c.089-.918,1.132-1.086,2-1.306a4.555,4.555,0,0,1,.776-1.1,5.287,5.287,0,0,0,1.306-.612c.2-.138.329-.365.53-.49.492-.307,1.043-.439,1.511-.735a7.254,7.254,0,0,0,1.183-1.02,28.9,28.9,0,0,1,2.531-1.877c.453-.371.644-.994,1.47-.939.417-.645,1.8-.323,2.734-.449.385-.5,1.051-.42,1.633-.734.392-.212.5-.674.9-.858.293-.135.638-.073.939-.2" transform="translate(70.813 104.198)"/>
      </g>
    </g>
  </g>
</svg>
