<?xml version="1.0" encoding="utf-8"?>
<!-- Generator: Adobe Illustrator 16.0.0, SVG Export Plug-In . SVG Version: 6.00 Build 0)  -->
<!DOCTYPE svg PUBLIC "-//W3C//DTD SVG 1.1//EN" "http://www.w3.org/Graphics/SVG/1.1/DTD/svg11.dtd">
<svg version="1.1" id="Layer_1" xmlns="http://www.w3.org/2000/svg" xmlns:xlink="http://www.w3.org/1999/xlink" x="0px" y="0px"
	 width="70px" height="70px" viewBox="0 0 70 70" enable-background="new 0 0 70 70" xml:space="preserve">
<g>
	<path fill="#94A4A6" d="M38.25,24.931h11.769c1.774,0,3.21-1.436,3.21-3.21c0-1.771-1.436-3.21-3.21-3.21H38.25
		c-1.774,0-3.21,1.438-3.21,3.21C35.041,23.495,36.476,24.931,38.25,24.931z"/>
	<path fill="#94A4A6" d="M38.25,34.562h11.769c1.774,0,3.21-1.437,3.21-3.211c0-1.771-1.436-3.21-3.21-3.21H38.25
		c-1.774,0-3.21,1.439-3.21,3.21C35.041,33.125,36.476,34.562,38.25,34.562z"/>
	<path fill="#94A4A6" d="M69.819,26.272c0-14.308-11.64-25.95-25.95-25.95c-7.762,0-14.722,3.445-19.48,8.865V9.15
		c-13.348,0-24.207,10.858-24.207,24.21c0,10.173,6.316,18.888,15.226,22.465c5.063,3.354,4.129,9.847,4.085,10.104
		c-0.238,1.41,0.482,2.809,1.771,3.43c0.445,0.216,0.922,0.319,1.395,0.319c0.891,0,1.769-0.37,2.393-1.069L37.75,54.424
		c1.589,3.397,1.109,6.953,1.078,7.156c-0.238,1.408,0.482,2.806,1.771,3.43c0.445,0.217,0.921,0.316,1.395,0.316
		c0.891,0,1.769-0.369,2.392-1.065l16.559-18.496c0.003,0,0.003-0.006,0.003-0.006C66.374,41,69.819,34.034,69.819,26.272z
		 M43.869,6.742c10.768,0,19.53,8.759,19.53,19.53c0,10.766-8.763,19.527-19.53,19.527c-10.769,0-19.527-8.762-19.527-19.527
		C24.341,15.501,33.1,6.742,43.869,6.742z M6.601,33.36c0-8.285,5.699-15.245,13.38-17.213c-1.326,3.109-2.06,6.532-2.06,10.125
		c0,10.051,5.759,18.769,14.138,23.076c-2.373,1.138-4.959,1.802-7.671,1.802C14.58,51.15,6.601,43.17,6.601,33.36z"/>
</g>
</svg>
